{
  "artists": {
    "href": "https://api.spotify.com/v1/search?query=Muse&type=artist&market=US&offset=5&limit=10",
    "items": [
      {
        "external_urls": {
          "spotify": "https://open.spotify.com/artist/0EcCExwuVReDp8Y86sLXUo"
        },
        "followers": {
          "href": null,
          "total": 96
        },
        "genres": [],
        "href": "https://api.spotify.com/v1/artists/0EcCExwuVReDp8Y86sLXUo",
        "id": "0EcCExwuVReDp8Y86sLXUo",
        "images": [
          {
            "height": 640,
            "url": "https://i.scdn.co/image/fef4944016086c9f0afb7ee943ab0a0d746b30e7",
            "width": 640
          },
          {
            "height": 320,
            "url": "https://i.scdn.co/image/39d74c5be6e3e929bdca315b2a4c60fc6c581487",
            "width": 320
          },
          {
            "height": 160,
            "url": "https://i.scdn.co/image/ae04510bb2b9493375de9e3748651e4574de4084",
            "width": 160
          }
        ],
        "name": "Charlee Muse",
        "popularity": 26,
        "type": "artist",
        "uri": "spotify:artist:0EcCExwuVReDp8Y86sLXUo"
      },
      {
        "external_urls": {
          "spotify": "https://open.spotify.com/artist/0LjVOGAofVR8GpUkRODKhA"
        },
        "followers": {
          "href": null,
          "total": 798
        },
        "genres": [],
        "href": "https://api.spotify.com/v1/artists/0LjVOGAofVR8GpUkRODKhA",
        "id": "0LjVOGAofVR8GpUkRODKhA",
        "images": [
          {
            "height": 640,
            "url": "https://i.scdn.co/image/1c53abd7fe545193ea50f9792ee26a6cbaa9bedc",
            "width": 640
          },
          {
            "height": 300,
            "url": "https://i.scdn.co/image/b51c07cb74c73cebc47aad63efdd8a122a605b4d",
            "width": 300
          },
          {
            "height": 64,
            "url": "https://i.scdn.co/image/adf4216797d74906fd5652f271620c8b0f253f0d",
            "width": 64
          }
        ],
        "name": "Sky Muse",
        "popularity": 20,
        "type": "artist",
        "uri": "spotify:artist:0LjVOGAofVR8GpUkRODKhA"
      },
      {
        "external_urls": {
          "spotify": "https://open.spotify.com/artist/1u3g8PeUxNzaQmolXTwZRL"
        },
        "followers": {
          "href": null,
          "total": 17
        },
        "genres": [],
        "href": "https://api.spotify.com/v1/artists/1u3g8PeUxNzaQmolXTwZRL",
        "id": "1u3g8PeUxNzaQmolXTwZRL",
        "images": [
          {
            "height": 640,
            "url": "https://i.scdn.co/image/b96f5583f0aaa3800961be66c820b44627e9b0d9",
            "width": 640
          },
          {
            "height": 300,
            "url": "https://i.scdn.co/image/95b1b9c7da6c7c68943831cb1a29d259c3de15db",
            "width": 300
          },
          {
            "height": 64,
            "url": "https://i.scdn.co/image/0a8e586b033c1be020fd5cb3113e8989bdddc113",
            "width": 64
          }
        ],
        "name": "Iberian Muse",
        "popularity": 26,
        "type": "artist",
        "uri": "spotify:artist:1u3g8PeUxNzaQmolXTwZRL"
      },
      {
        "external_urls": {
          "spotify": "https://open.spotify.com/artist/15qpUkIDVVWsb60MTzCVsJ"
        },
        "followers": {
          "href": null,
          "total": 166
        },
        "genres": [],
        "href": "https://api.spotify.com/v1/artists/15qpUkIDVVWsb60MTzCVsJ",
        "id": "15qpUkIDVVWsb60MTzCVsJ",
        "images": [
          {
            "height": 640,
            "url": "https://i.scdn.co/image/13245132dd3751e58db6d3a94bc93aebb496a6e8",
            "width": 640
          },
          {
            "height": 300,
            "url": "https://i.scdn.co/image/b75915f7e064a2645343a5ee29c37726d0defe3e",
            "width": 300
          },
          {
            "height": 64,
            "url": "https://i.scdn.co/image/64803e843e21fd189cd618ba8dcb3dba11c52811",
            "width": 64
          }
        ],
        "name": "Clip Muse",
        "popularity": 24,
        "type": "artist",
        "uri": "spotify:artist:15qpUkIDVVWsb60MTzCVsJ"
      },
      {
        "external_urls": {
          "spotify": "https://open.spotify.com/artist/3uIGREwbP57eNOtcol8yrC"
        },
        "followers": {
          "href": null,
          "total": 357
        },
        "genres": ["harp"],
        "href": "https://api.spotify.com/v1/artists/3uIGREwbP57eNOtcol8yrC",
        "id": "3uIGREwbP57eNOtcol8yrC",
        "images": [],
        "name": "Celtic Muse",
        "popularity": 18,
        "type": "artist",
        "uri": "spotify:artist:3uIGREwbP57eNOtcol8yrC"
      },
      {
        "external_urls": {
          "spotify": "https://open.spotify.com/artist/7dwv5d4pNWa18YFMiXZiFi"
        },
        "followers": {
          "href": null,
          "total": 156
        },
        "genres": [],
        "href": "https://api.spotify.com/v1/artists/7dwv5d4pNWa18YFMiXZiFi",
        "id": "7dwv5d4pNWa18YFMiXZiFi",
        "images": [
          {
            "height": 640,
            "url": "https://i.scdn.co/image/2094e57ac2d673414f5a733b1db969fcb402567d",
            "width": 640
          },
          {
            "height": 320,
            "url": "https://i.scdn.co/image/56849064097581066c7d2051e5b5a464dad08f52",
            "width": 320
          },
          {
            "height": 160,
            "url": "https://i.scdn.co/image/0767244f8c471f4b8f2ac1e7552ce15c6a3d2d8c",
            "width": 160
          }
        ],
        "name": "The Muse Maker",
        "popularity": 14,
        "type": "artist",
        "uri": "spotify:artist:7dwv5d4pNWa18YFMiXZiFi"
      },
      {
        "external_urls": {
          "spotify": "https://open.spotify.com/artist/1zFNYw5kgA7UEKWqNHf1Et"
        },
        "followers": {
          "href": null,
          "total": 1851
        },
        "genres": ["electropop"],
        "href": "https://api.spotify.com/v1/artists/1zFNYw5kgA7UEKWqNHf1Et",
        "id": "1zFNYw5kgA7UEKWqNHf1Et",
        "images": [
          {
            "height": 640,
            "url": "https://i.scdn.co/image/37b8c747761d4e769f50cafe0cfac5e5699d11c4",
            "width": 640
          },
          {
            "height": 300,
            "url": "https://i.scdn.co/image/1dbe9563251b3a2411a08e116214ecdc72ea5d36",
            "width": 300
          },
          {
            "height": 64,
            "url": "https://i.scdn.co/image/019776540e398dae278322f9f030f36afb0614d2",
            "width": 64
          }
        ],
        "name": "Dangerous Muse",
        "popularity": 14,
        "type": "artist",
        "uri": "spotify:artist:1zFNYw5kgA7UEKWqNHf1Et"
      },
      {
        "external_urls": {
          "spotify": "https://open.spotify.com/artist/4WUHZVB8wkTnWXQGbF4SCz"
        },
        "followers": {
          "href": null,
          "total": 324
        },
        "genres": [],
        "href": "https://api.spotify.com/v1/artists/4WUHZVB8wkTnWXQGbF4SCz",
        "id": "4WUHZVB8wkTnWXQGbF4SCz",
        "images": [
          {
            "height": 640,
            "url": "https://i.scdn.co/image/964cdc5b9760e360749c3f716997fa50460ddef0",
            "width": 640
          },
          {
            "height": 320,
            "url": "https://i.scdn.co/image/5f5dfc727bc263a8e79f8fb9b2b4d63217a994be",
            "width": 320
          },
          {
            "height": 160,
            "url": "https://i.scdn.co/image/8a18bfaf687c7bd34458ea8410c3c7fffbd7796c",
            "width": 160
          }
        ],
        "name": "Matt Muse",
        "popularity": 6,
        "type": "artist",
        "uri": "spotify:artist:4WUHZVB8wkTnWXQGbF4SCz"
      },
      {
        "external_urls": {
          "spotify": "https://open.spotify.com/artist/2fG1yJINYy4n12TEyenffE"
        },
        "followers": {
          "href": null,
          "total": 6
        },
        "genres": [],
        "href": "https://api.spotify.com/v1/artists/2fG1yJINYy4n12TEyenffE",
        "id": "2fG1yJINYy4n12TEyenffE",
        "images": [],
        "name": "Kandy Muse",
        "popularity": 10,
        "type": "artist",
        "uri": "spotify:artist:2fG1yJINYy4n12TEyenffE"
      },
      {
        "external_urls": {
          "spotify": "https://open.spotify.com/artist/5UFIfcmP6iKTTA6QyrqeEQ"
        },
        "followers": {
          "href": null,
          "total": 2476
        },
        "genres": [],
        "href": "https://api.spotify.com/v1/artists/5UFIfcmP6iKTTA6QyrqeEQ",
        "id": "5UFIfcmP6iKTTA6QyrqeEQ",
        "images": [
          {
            "height": 640,
            "url": "https://i.scdn.co/image/eec1c7267b412079460e2f6eeca3988427ce65e0",
            "width": 640
          },
          {
            "height": 300,
            "url": "https://i.scdn.co/image/4b35e26209ee48f4d4cd4dfffa79e3a3de9631ca",
            "width": 300
          },
          {
            "height": 64,
            "url": "https://i.scdn.co/image/b945f1e5051075425a7ee156153960f8dfeff3c1",
            "width": 64
          }
        ],
        "name": "The Muse",
        "popularity": 12,
        "type": "artist",
        "uri": "spotify:artist:5UFIfcmP6iKTTA6QyrqeEQ"
      }
    ],
    "limit": 10,
    "next": "https://api.spotify.com/v1/search?query=Muse&type=artist&market=US&offset=15&limit=10",
    "offset": 5,
    "previous": "https://api.spotify.com/v1/search?query=Muse&type=artist&market=US&offset=0&limit=10",
    "total": 218
  }
}
